<svg xmlns="http://www.w3.org/2000/svg" width="30" height="30">
    <g data-name="그룹 5362" transform="translate(.172)">
        <circle data-name="타원 413" cx="15" cy="15" r="15" transform="translate(-.172)" style="fill:#afafaf"/>
        <path transform="rotate(90 12.915 14.915)" style="fill:none" d="M0 0h25v26H0z"/>
        <path data-name="&gt;" d="m0 0 8.41 8.05-3.954 3.723" transform="rotate(90 5.271 16.134)" style="stroke:#fff;stroke-linecap:round;stroke-linejoin:round;stroke-width:3px;fill:none"/>
    </g>
</svg>
