<svg xmlns="http://www.w3.org/2000/svg" width="16" height="16">
    <defs>
        <style>
            .cls-1{fill:#ccc}
        </style>
    </defs>
    <g id="icon_16x16" transform="translate(-16 -16)">
        <path id="패스_4719" data-name="패스 4719" class="cls-1" d="M24 16a8 8 0 1 0 8 8 8 8 0 0 0-8-8zm0 15a7 7 0 1 1 7-7 7 7 0 0 1-7 7z"/>
        <path id="패스_4720" data-name="패스 4720" class="cls-1" d="M44.993 30a.993.993 0 0 0-.993.993v3.974a.993.993 0 0 0 1.987 0v-3.974a.993.993 0 0 0-.994-.993z" transform="translate(-20.993 -10.486)"/>
        <circle id="타원_421" data-name="타원 421" class="cls-1" cx="1" cy="1" r="1" transform="translate(23 27)"/>
    </g>
</svg>
