<svg xmlns="http://www.w3.org/2000/svg" width="16" height="16">
    <path style="fill:none" d="M0 0h16v16H0z"/>
    <path data-name="&gt;" d="m306.41 516.78 4 4.12-3.768 3.88" transform="translate(-300.669 -512.78)" style="stroke:#79a1e1;stroke-linecap:round;stroke-linejoin:round;stroke-width:1.2px;fill:none"/>
</svg>
