<svg xmlns="http://www.w3.org/2000/svg" width="14" height="14">
    <path data-name="사각형 4884" style="fill:none" d="M0 0h14v14H0z"/>
    <g data-name="그룹 5812">
        <g data-name="그룹 5811">
            <path data-name="패스 4757" d="M15.457 75.433a5 5 0 0 0 3.532-8.539 5 5 0 1 0-3.532 8.539z" transform="translate(-8.45 -63.464)" style="stroke-miterlimit:10;stroke:#fff;fill:none"/>
        </g>
        <path data-name="패스 4758" d="M23.482 70.5v3.076h2.645" transform="translate(-16.491 -66.592)" style="stroke-linecap:round;stroke-linejoin:round;stroke:#fff;fill:none"/>
    </g>
</svg>
