<svg xmlns="http://www.w3.org/2000/svg" width="13.003" height="15.001" viewBox="0 0 13.003 15.001">
  <g id="Alarm" transform="translate(0.503 0.501)">
    <path id="패스_4053" data-name="패스 4053" d="M1620.783,517.554v-2.737a4.794,4.794,0,0,0-4.629-4.65,6.48,6.48,0,0,0-.686,0,4.794,4.794,0,0,0-4.628,4.65v3.624l-.986,1.691a.312.312,0,0,0,.134.438.363.363,0,0,0,.166.04h11.314a.333.333,0,0,0,.343-.322.316.316,0,0,0-.043-.156l-.985-1.69v-.886" transform="translate(-1609.812 -510.156)" fill="none" stroke="#121212" stroke-linecap="round" stroke-linejoin="round" stroke-width="1"/>
    <path id="패스_4054" data-name="패스 4054" d="M1618.683,537.4v.225a1.708,1.708,0,0,0,3.41,0V537.4" transform="translate(-1614.32 -525.225)" fill="none" stroke="#121212" stroke-linecap="round" stroke-linejoin="round" stroke-width="1"/>
  </g>
</svg>
